test2.vcd
$date today $end
$timescale 1 ns $end
$scope module kindred $end
$scope module stage1 $end
$var string 20 " inst $end
$upscope $end
$upscope $end
$scope module kindren $end
$var integer 2 ! clk $end
$upscope $end
$enddefinitions $end
#0
$dumpvars
b0 !
sx "
$end
#2
b1 !
#3
b0 !
#4
b1 !
#5
b0 !
#6
b1 !
#7
b0 !
#8
b1 !
#9
b0 !
#10
b1 !
#11
b0 !
#12
b1 !
#13
b0 !
#14
b1 !
#15
b0 !
#16
b1 !
#17
b0 !
#18
b1 !
#19
b0 !
#20
b1 !
#21
b0 !
#22
b1 !
#23
b0 !
#24
b1 !
#25
b0 !
#26
b1 !
#27
b0 !
#28
b1 !
#29
b0 !
#30
b1 !
#31
b0 !
#32
b1 !
#33
b0 !
#34
b1 !
#35
b0 !
#36
b1 !
#37
b0 !
#38
b1 !
#39
b0 !
#40
b1 !
#41
b0 !
#42
b1 !
#43
b0 !
#44
b1 !
#45
b0 !
#46
b1 !
#47
b0 !
#48
b1 !
#49
b0 !
#50
b1 !
#51
b0 !
#52
b1 !
#53
b0 !
#54
b1 !
#55
b0 !
#56
b1 !
#57
b0 !
#58
b1 !
#59
b0 !
#60
b1 !
#61
b0 !
#62
b1 !
#63
b0 !
#64
b1 !
#65
b0 !
#66
b1 !
#67
b0 !
#68
b1 !
#69
b0 !
#70
b1 !
#71
b0 !
#72
b1 !
#73
b0 !
#74
b1 !
#75
b0 !
#76
b1 !
#77
b0 !
#78
b1 !
#79
b0 !
#80
b1 !
#81
b0 !
#82
b1 !
#83
b0 !
#84
b1 !
#85
b0 !
#86
b1 !
#87
b0 !
#88
b1 !
#89
b0 !
#90
b1 !
#91
b0 !
#92
b1 !
#93
b0 !
#94
b1 !
#95
b0 !
#96
b1 !
#97
b0 !
#98
b1 !
#99
b0 !
#100
b1 !
#101
b0 !
#102
b1 !
#103
b0 !
#104
b1 !
#105
b0 !
#106
b1 !
#107
b0 !
#108
b1 !
#109
b0 !
#110
b1 !
#111
b0 !
#112
b1 !
#113
b0 !
#114
b1 !
#115
b0 !
#116
b1 !
#117
b0 !
#118
b1 !
#119
b0 !
#120
b1 !
#121
b0 !
#122
b1 !
#123
b0 !
#124
b1 !
#125
b0 !
#126
b1 !
#127
b0 !
#128
b1 !
#129
b0 !
#130
b1 !
#131
b0 !
#132
b1 !
#133
b0 !
#134
b1 !
#135
b0 !
#136
b1 !
#137
b0 !
#138
b1 !
#139
b0 !
#140
b1 !
#141
b0 !
#142
b1 !
#143
b0 !
#144
b1 !
#145
b0 !
#146
b1 !
#147
b0 !
#148
b1 !
#149
b0 !
#150
b1 !
#151
b0 !
#152
b1 !
#153
b0 !
#154
b1 !
#155
b0 !
#156
b1 !
#157
b0 !
#158
b1 !
#159
b0 !
#160
b1 !
#161
b0 !
#162
b1 !
#163
b0 !
#164
b1 !
#165
b0 !
#166
b1 !
#167
b0 !
#168
b1 !
#169
b0 !
#170
b1 !
#171
b0 !
#172
b1 !
#173
b0 !
#174
b1 !
#175
b0 !
#176
b1 !
#177
b0 !
#178
b1 !
#179
b0 !
#180
b1 !
#181
b0 !
#182
b1 !
#183
b0 !
#184
b1 !
#185
b0 !
#186
b1 !
#187
b0 !
#188
b1 !
#189
b0 !
#190
b1 !
#191
b0 !
#192
b1 !
#193
b0 !
#194
b1 !
#195
b0 !
#196
b1 !
#197
b0 !
#198
b1 !
#199
b0 !
#200
b1 !
#201
b0 !
#202
b1 !
#203
b0 !
#204
b1 !
#205
b0 !
#206
b1 !
#207
b0 !
#208
b1 !
#209
b0 !
#210
b1 !
#211
b0 !
#212
b1 !
#213
b0 !
#214
b1 !
#215
b0 !
#216
b1 !
#217
b0 !
#218
b1 !
#219
b0 !
#220
b1 !
#221
b0 !
#222
b1 !
#223
b0 !
#224
b1 !
#225
b0 !
#226
b1 !
#227
b0 !
#228
b1 !
#229
b0 !
#230
b1 !
#231
b0 !
#232
b1 !
#233
b0 !
#234
b1 !
#235
b0 !
#236
b1 !
#237
b0 !
#238
b1 !
#239
b0 !
#240
b1 !
#241
b0 !
#242
b1 !
#243
b0 !
#244
b1 !
#245
b0 !
#246
b1 !
#247
b0 !
#248
b1 !
#249
b0 !
#250
b1 !
#251
b0 !
#252
b1 !
#253
b0 !
#254
b1 !
#255
b0 !
#256
b1 !
#257
b0 !
#258
b1 !
#259
b0 !
#260
b1 !
#261
b0 !
#262
b1 !
#263
b0 !
#264
b1 !
#265
b0 !
#266
b1 !
#267
b0 !
#268
b1 !
#269
b0 !
#270
b1 !
#271
b0 !
#272
b1 !
#273
b0 !
#274
b1 !
#275
b0 !
#276
b1 !
#277
b0 !
#278
b1 !
#279
b0 !
#280
b1 !
#281
b0 !
#282
b1 !
#283
b0 !
#284
b1 !
#285
b0 !
#286
b1 !
#287
b0 !
#288
b1 !
#289
b0 !
#290
b1 !
#291
b0 !
#292
b1 !
#293
b0 !
#294
b1 !
#295
b0 !
#296
b1 !
#297
b0 !
#298
b1 !
#299
b0 !
#300
b1 !
#301
b0 !
#302
b1 !
#303
b0 !
#304
b1 !
#305
b0 !
#306
b1 !
#307
b0 !
#308
b1 !
#309
b0 !
#310
b1 !
#311
b0 !
#312
b1 !
#313
b0 !
#314
b1 !
#315
b0 !
#316
b1 !
#317
b0 !
#318
b1 !
#319
b0 !
#320
b1 !
#321
b0 !
#322
b1 !
#323
b0 !
#324
b1 !
#325
b0 !
#326
b1 !
#327
b0 !
#328
b1 !
#329
b0 !
#330
b1 !
#331
b0 !
#332
b1 !
#333
b0 !
#334
b1 !
#335
b0 !
#336
b1 !
#337
b0 !
#338
b1 !
#339
b0 !
#340
b1 !
